0.0 , (-1.1121173882294438e-14-1.0000000000000027j)
0.05 , (-2.1467087560982144e-14-0.9999999999999962j)
0.1 , (1.960237694304772e-15-1.0000000000000018j)
0.15 , (-3.84300458621209e-14-1.0000000000000042j)
0.2 , (4.896839414262979e-14-0.9999999999999954j)
0.25 , (-2.7666960471307206e-14-0.9999999999999962j)
0.3 , (8.819854829180635e-14-1.0000000000000029j)
0.35 , (-8.786613615322285e-14-0.9999999999999931j)
0.4 , (4.668513136348888e-14+1.809382218788134e-14j)
0.45 , (5.3518354311945656e-14-1.0756459235227311e-14j)
0.5 , (4.4860729858704945e-14+1.0765294109342487e-14j)
0.55 , (4.994630427125338e-14-8.777447433427789e-15j)
0.6 , (-8.399204385371798e-15-4.426271931703394e-15j)
0.65 , (1.599112214846935e-14-1.3508522522104771e-14j)
0.7 , (-2.7944706826303065e-14-1.3870752360827005e-15j)
0.75 , (1.8891721756408213e-14-1.1308638867425838e-14j)
0.8 , (-2.1399169466221724e-14+1.8266102233127282e-14j)