0.0 , (5.780216389854183e-14+0.9999999999999856j)
0.05 , (-1.0401297295797218e-13+1.0000000000000202j)
0.1 , (3.287014914551393e-14+0.9999999999999618j)
0.15 , (2.3408275057976066e-14+0.9999999999999837j)
0.2 , (-2.9507927365057096e-14+1.0000000000000075j)
0.25 , (-9.955246588907248e-15+0.9999999999999855j)
0.3 , (-4.61147298034278e-14+0.9999999999999889j)
0.35 , (1.1403172020458227e-13-2.9066735838930472e-15j)
