0.0 , (1.9602653032863815e-14+1.0000000000000093j)
0.05 , (-2.2647095434990395e-14+1.0000000000000249j)
0.1 , (-2.720478611915704e-14+1.0000000000000084j)
0.15 , (-8.744316655495877e-15+1.0000000000000009j)
0.2 , (5.99114900935402e-14+0.9999999999999986j)
0.25 , (-2.862720085170045e-14+0.9999999999999845j)
0.3 , (2.748860645010708e-14+0.9999999999999936j)
0.35 , (3.143006466474017e-14-7.580321990821382e-15j)
0.4 , (5.394850224542831e-14+4.85918076334704e-16j)
0.45 , (-7.274414474583398e-15-2.2992759884746674e-14j)
0.5 , (-3.831077506156602e-14-1.201984623369754e-14j)
0.55 , (7.032835885496542e-14+2.0757536733607036e-14j)
0.6 , (2.6241784840602807e-14-4.1082164635570424e-16j)
0.65 , (3.4736516302344953e-14-8.318033979438614e-15j)
0.7 , (-1.1793176494680045e-14+3.237981363212164e-15j)
0.75 , (2.4334004211356897e-14-6.546641719345739e-15j)
0.8 , (1.749443119712984e-14-8.967397226904082e-15j)
0.85 , (1.386136530707963e-14-5.5748055666763306e-15j)
0.9 , (-2.831052583263459e-14+1.5452194827443586e-14j)
0.95 , (8.089017476984275e-15+6.153489821220387e-15j)
