0.0 , (3.998884896381734e-15-1.0000000000000018j)
0.05 , (-1.5041373181087881e-15-1.0000000000000007j)
0.1 , (3.038092336356297e-15-1.0000000000000009j)
0.15 , (-1.4997198810512e-14-0.9999999999999986j)
0.2 , (4.039746189164425e-15-0.9999999999999988j)
0.25 , (5.742668174864683e-17-1.0000000000000007j)
0.3 , (6.44504066702121e-15-1.000000000000002j)
0.35 , (3.796787150997073e-15-0.9999999999999996j)
0.4 , (-6.569833263898077e-15-0.9999999999999993j)
0.45 , (5.761442282359433e-15-0.9999999999999982j)
0.5 , (5.653215074448522e-15-1.0000000000000002j)
0.55 , (4.2495744493998655e-15-1.0000000000000049j)
0.6 , (5.4500129697994635e-15+9.718361526694079e-17j)
0.65 , (-7.726097413721793e-15-1.6962958301138756e-15j)
0.7 , (1.972385646213139e-15-5.0358782456505685e-15j)
0.75 , (-8.496940180270938e-15+2.5400263081132252e-15j)
0.8 , (1.1043592643970545e-17-4.8591807633470396e-17j)
0.85 , (8.343986422151945e-15+1.5461029701558762e-15j)
0.9 , (3.1424542868418187e-15+1.2633869984702302e-15j)
0.95 , (9.776892567707123e-15-3.666472757798221e-16j)
1.0 , (-2.5013737338593284e-16-4.041954907693219e-15j)
