0.0 , (1.0000000000000002+5.941583505121222e-16j)
0.05 , (0.9999999999999996-7.297245731503102e-17j)
0.1 , (1.0000000000000002-9.225206883309496e-17j)
0.15 , (0.9999999999999998-3.636383993660518e-17j)
0.2 , (1.0000000000000002-3.9453379430233855e-16j)
0.25 , (0.9999999999999996+1.6082444546573234e-16j)
0.3 , (1.0000000000000002-7.802123222758836e-16j)
0.35 , (0.9999999999999998+3.3332849932286656e-16j)
0.4 , (0.9999999999999994+4.10084753457487e-16j)
0.45 , (1.0000000000000002-7.794268910576224e-19j)
0.5 , (0.9999999999999996-2.743938214994996e-16j)
0.55 , (0.9999999999999994-4.2125000841785154e-16j)
0.6 , (0.9999999999999999+3.738710641115864e-16j)
0.65 , (0.9999999999999992-5.001785839746583e-17j)
0.7 , (7.840950777219086e-17-5.671209249654095e-17j)
0.75 , (8.50356633585732e-17-2.1363978172335477e-16j)
0.8 , (7.730514850779381e-17-3.148233822896156e-16j)
0.85 , (-2.7608981609926363e-17-4.3467407328606225e-16j)
0.9 , (1.2479259687686716e-16-1.0445799997842129e-16j)
0.95 , (-9.055745968055847e-17-3.4358909347095985e-17j)
