0.0 , (-0.9999999999999998+1.0219555655138583e-16j)
0.05 , (-0.9999999999999994+4.875711209535284e-16j)
0.1 , (-1+1.4174243182025549e-16j)
0.15 , (-1.0000000000000002-4.378674689194069e-16j)
0.2 , (-1.0000000000000004-1.32849750071305e-17j)
0.25 , (-1.0000000000000002+3.316789846060814e-16j)
0.3 , (-0.9999999999999999-6.907755625513194e-18j)
0.35 , (-0.9999999999999994+7.942341999514375e-17j)
0.4 , (-1.0000000000000007+1.7786905053692372e-16j)
0.45 , (-0.9999999999999998-2.959735674619332e-16j)
0.5 , (-1.0000000000000007+4.718071827388585e-17j)
0.55 , (-1.0000000000000002+2.1507635215883415e-16j)
0.6 , (-1.0000000000000002+2.5557043662647243e-16j)
0.65 , (-1.0000000000000007+3.1455665564167094e-16j)
0.7 , (-1.0000000000000013-5.406030666768286e-16j)
0.75 , (-1.0000000000000036-6.655890060877248e-16j)
0.8 , (3.9580236035990435e-15-6.175048915240066e-16j)
0.85 , (1.113194138512231e-15-5.70505250164365e-17j)
0.9 , (5.654319433712919e-16+2.979088949797581e-16j)
0.95 , (4.240739575284689e-16-3.892328882788834e-16j)
