3.1 ,  -9.795942765017972e-15+1.0000000000000013j 
3.15 ,  9.644645545795575e-15+0.9999999999999977j 
3.2 ,  -2.851317575765145e-15+0.9999999999999983j 
3.25 ,  -2.4162000255927056e-15+0.9999999999999964j 
3.3000000000000003 ,  -1.5816357294878515e-14+1.0000000000000027j 
3.35 ,  2.809213878810007e-15+1.0000000000000004j 
3.4 ,  -2.960096963308255e-15+0.9999999999999979j 
3.45 ,  -5.508405965904458e-15+0.9999999999999942j 
3.5 ,  1.2925696920319225e-14+1.000000000000006j 
3.5500000000000003 ,  2.8758895693979796e-15+1.0000000000000029j 
3.6 ,  6.668535373153564e-15+1.0000000000000073j 
3.6500000000000004 ,  3.576191387933762e-15+1j 
3.7 ,  1.4388972945645323e-14+1.0000000000000018j 
3.75 ,  8.894233425637778e-15+0.9999999999999986j 
3.8 ,  -1.0797182483101952e-14+0.9999999999999979j 
3.85 ,  2.224455648311767e-15+0.9999999999999992j 
3.9000000000000004 ,  -2.2058333902158718e-14+0.999999999999999j 
3.95 ,  1.8054755478903296e-14+0.9999999999999986j 
4.0 ,  1.3901812465138172e-15+1.0000000000000053j 
4.05 ,  -4.99791589593692e-16+1.0000000000000024j 
4.1 ,  -2.3771333166146597e-16+0.999999999999997j 
4.15 ,  -4.674890811100781e-15+0.9999999999999982j 
4.2 ,  9.526375570824054e-15+0.9999999999999982j 
4.25 ,  1.4067121242527606e-14+1.0000000000000022j 
4.3 ,  1.0448895180092731e-14+0.9999999999999953j 
4.35 ,  1.8591197991584165e-15+1.0000000000000013j 
4.4 ,  -9.842601943938749e-16+0.9999999999999984j 
4.45 ,  2.929554527402274e-15+1.0000000000000002j 
4.5 ,  9.37870203043796e-15-3.982319507415778e-15j 
4.55 ,  4.135066198172696e-15+3.8012045880546614e-15j 
4.6 ,  -3.758790290056412e-15-3.2777382967304577e-15j 
4.65 ,  -1.851002758565098e-14+6.758678698109974e-16j 
4.7 ,  1.1358300523096692e-14+1.3937013916690826e-15j 
4.75 ,  -2.4177288729493553e-14+6.425162200262063e-15j 
4.8 ,  -4.736976508496103e-15-2.2749800846579323e-15j 
4.85 ,  6.0051260562940456e-15+2.5289827154692545e-15j 
4.9 ,  -1.4106395018867726e-14+2.533400152526843e-15j 
4.95 ,  -2.2788108308563096e-15+2.7829853462805773e-16j 
5.0 ,  -1.3688049925023317e-14+7.664253294915558e-16j 
5.05 ,  8.754739046053625e-15+1.9017066532917277e-15j 
5.1 ,  -7.850337830966462e-15-6.7498438239947965e-15j 
5.15 ,  9.336805400844897e-15+4.143555960017748e-15j 
5.2 ,  -2.3769849183385063e-14-3.021526947390341e-15j 
5.25 ,  -1.3164376566337038e-14-6.378779111157387e-15j 
5.300000000000001 ,  2.0091418285427044e-14-2.2219708399668737e-15j 
5.35 ,  -5.742219528913522e-15-3.2048505852802522e-15j 
5.4 ,  -2.4845391573226758e-14-5.124226986802333e-16j 
5.45 ,  -1.1786964473817812e-14-2.1159523505847565e-15j 
5.5 ,  -1.0123695887954811e-14+2.4892257819509607e-15j 
5.550000000000001 ,  9.430813983226696e-15-3.162884933233164e-15j 
5.6 ,  -2.6719627289816607e-15-2.3589113887521085e-15j 