3.1 ,  2.1468744099878737e-15+1.000000000000001j 
3.15 ,  3.852005114216926e-15+1.0000000000000007j 
3.2 ,  9.04691109394067e-15+1.0000000000000013j 
3.25 ,  -1.5902773407317584e-15+1.0000000000000009j 
3.3000000000000003 ,  2.8470381836156064e-15+1.0000000000000013j 
3.35 ,  -1.0283793470065371e-14+1.0000000000000007j 
3.4 ,  -8.728855625794318e-15+0.9999999999999994j 
3.45 ,  3.2954080449608106e-15+1.0000000000000007j 
3.5 ,  -6.431788355848445e-15+0.9999999999999983j 
3.5500000000000003 ,  -3.975693351829396e-15+0.9999999999999969j 
3.6 ,  -1.8376538159566985e-15+0.999999999999999j 
3.6500000000000004 ,  -3.383756786112575e-15+1j 
3.7 ,  -3.737151750719632e-15+0.9999999999999984j 
3.75 ,  6.89120180983762e-15+0.9999999999999996j 
3.8 ,  -1.4224147325434062e-15+1.0000000000000013j 
3.85 ,  -4.280496508802983e-15+1.0000000000000007j 
3.9000000000000004 ,  -4.240739575284689e-16+0.9999999999999999j 
3.95 ,  -1.501928599579994e-15+1.0000000000000007j 
4.0 ,  1.5902773407317583e-16+0.9999999999999978j 
4.05 ,  3.975693351829396e-16+0.9999999999999994j 
4.1 ,  1.2598530488241597e-14+1.0000000000000007j 
4.15 ,  3.721690721018074e-15+0.9999999999999996j 
4.2 ,  -3.533949646070574e-17+0.9999999999999984j 
4.25 ,  1.8111491936111694e-15+0.9999999999999941j 
4.3 ,  1.6256168371924641e-15+1.0000000000000013j 
4.35 ,  3.710647128374103e-16+1.0000000000000018j 
4.4 ,  2.2396405881972266e-15+0.9999999999999978j 
4.45 ,  -1.9171676829932865e-15+1.0000000000000007j 
4.5 ,  3.666472757798221e-15+0.9999999999999974j 
4.55 ,  -1.501928599579994e-15+1.0000000000000004j 
4.6 ,  6.2639257476600926e-15+0.9999999999999993j 
4.65 ,  4.761997148080099e-15+1.000000000000001j 
4.7 ,  -3.71948200248928e-15+0.9999999999999996j 
4.75 ,  -8.52565352114526e-15+1.0000000000000004j 
4.8 ,  3.268903422615281e-15+1.0000000000000002j 
4.85 ,  5.698493804288801e-16+1.000000000000001j 
4.9 ,  3.3970090972853396e-15+0.9999999999999999j 
4.95 ,  -1.1838731314336424e-15+0.9999999999999998j 
5.0 ,  2.513521685767696e-15+0.999999999999998j 
5.05 ,  -3.268903422615281e-15+1.0000000000000004j 
5.1 ,  8.260607297689967e-16+1.0000000000000002j 
5.15 ,  -1.378240361967524e-15+1.000000000000003j 
5.2 ,  1.0866895161667016e-15-1.643286585422817e-15j 
5.25 ,  6.802853068685856e-16-4.240739575284689e-16j 
5.300000000000001 ,  4.9386946303836275e-15-1.1485336349729366e-15j 
5.35 ,  2.9950223250448115e-15-4.770832022195276e-16j 
5.4 ,  -7.332945515596442e-16+3.710647128374103e-16j 
5.45 ,  -1.621199400134876e-15-1.2457172502398774e-15j 
5.5 ,  -4.240739575284689e-16+7.597991739051735e-16j 
5.550000000000001 ,  2.4781821893069904e-15+1.3694054878523476e-16j 
5.6 ,  9.559333792620903e-15-9.232443450359375e-16j 
5.65 ,  3.0922059403117524e-16+2.7829853462805773e-16j 
5.7 ,  -3.737151750719632e-15+1.0612892530855694e-15j 
5.75 ,  8.036422367017366e-15+1.641077866894023e-15j 
5.800000000000001 ,  -2.5621134934011662e-15-5.300924469105861e-17j 
5.85 ,  -2.774150472165401e-15-8.260607297689967e-16j 
5.9 ,  3.96685847771422e-15-8.542218910111216e-16j 
5.95 ,  6.6614950828430326e-15-2.652670953081725e-15j 
6.0 ,  -2.981770013872047e-15-4.1965652047088067e-16j 
