2.6,(9.276617820935257e-16+0.9999999999999986j)
2.7842105263157895,(7.120908536832207e-15+0.9999999999999988j)
2.968421052631579,(-2.5179391228252843e-16+1.0000000000000007j)
3.1526315789473687,(-2.8271597168564594e-16+0.9999999999999989j)
3.336842105263158,(1.0314715529468488e-15+0.9999999999999983j)
3.5210526315789474,(-4.488116050509629e-15+1.0000000000000013j)
3.705263157894737,(1.4073954465476062e-14+0.9999999999999989j)
3.889473684210526,(8.234102675344438e-15+1.0000000000000002j)
4.073684210526316,(3.8873446106776316e-16+1.0000000000000004j)
4.257894736842105,(5.4246127067183314e-15+1.0000000000000022j)
4.442105263157895,(-1.378240361967524e-15+1.0000000000000013j)
4.626315789473685,(-7.218092152099149e-15+1.0000000000000004j)
4.810526315789474,(5.0800526162264504e-15+0.9999999999999996j)
4.994736842105263,(1.842071253014287e-15+1.0000000000000013j)
5.178947368421053,(3.2004331482226637e-15+0.999999999999999j)
5.363157894736842,(1.131526502301222e-14+5.610145063137037e-16j)
5.5473684210526315,(2.0320210464905803e-15+2.6062878639770486e-16j)
5.731578947368421,(-1.236882376124701e-16+1.4621716660617e-15j)
5.91578947368421,(3.357252163767046e-16-1.1419074793865543e-15j)
6.1,(1.1396987608577602e-15+2.2407449474616236e-15j)
